Naver Webtoon EDA
…
webtoon <- webtoon %>% select(-author) %>% cbind(author1,author2,author3,author4)

author1   .

 4  2 author4  NA 
.

   *

webtoon %>% group_by(author1) %>% summarise(mean_rate = mean(rating)) %>% arrange(-mean_rate)

## # A tibble: 1,197 x 2
##    author1   mean_rate
##    <chr>         <dbl>
##  1            9.98
##  2 cosmos         9.98
##  3 CRG            9.98
##  4 Croissant      9.98
##  5 QTT            9.98
##  6            9.98
##  7          9.98
##  8          9.98
##  9            9.98
## 10            9.98
## # ... with 1,187 more rows
…
2  3   .

4   2 .

    *

webtoon %>% filter(author1!="") %>% group_by(author1) %>% summarise(n=n()) %>% arrange(-n)

## # A tibble: 1,196 x 2
##    author1     n
##    <chr>   <int>
##  1        14
##  2      11
##  3        11
##  4      10
##  5 LICO        8
##  6       8
##  7       7
##  8       7
##  9         7
## 10 ()      7
## # ... with 1,186 more rows
…
